Role,Username,ConfirmPassword,Password
"admin","IDE_User@appvance.com","Appvance@12345678","Appvance@12345678"
"user","Stag_User@appvance.com","Appvance@12345678","Appvance@12345678"
"user","Controller_User@appvance.com","Appvance@12345678","Appvance@12345678"
"admin","Global_User@appvance.com","Appvance@12345678","Appvance@12345678"
"admin","Bulk_User@appvance.com","Appvance@12345678","Appvance@12345678"
"admin","Instant_User@appvance.com","Appvance@12345678","Appvance@12345678"
"admin","Validation_User@appvance.com","Appvance@12345678","Appvance@12345678"
"admin","DPL_User@appvance.com","Appvance@12345678","Appvance@12345678"
"admin","General_User@appvance.com","Appvance@12345678","Appvance@12345678"
"admin","Play_User@appvance.com","Appvance@12345678","Appvance@12345678"
"admin","WebAI_User@appvance.com","Appvance@12345678","Appvance@12345678"
"admin","JsEditPlay_User@appvance.com","Appvance@12345678","Appvance@12345678"
"admin","jay@appvance.com","Appvance@12345678","Appvance@12345678"
"admin","ServiceSuite_User@appvance.com","Appvance@12345678","Appvance@12345678"
"admin","TrafficUser@appvance.com","Appvance@12345678","Appvance@12345678"
"admin","RegUser@appvance.com","Appvance@12345678","Appvance@12345678"
"admin","Scenario_User@appvance.com","Appvance@12345678","Appvance@12345678"
"admin","CrossBrowser@appvance.com","Appvance@12345678","Appvance@12345678"
